…
  
  }
else stop("The group variable must not be numeric.")
  }
```

Examples Example 1: Check if the function works

``` r
#I will demonstrate the use of this function from the vancouver trees dataset
vancouver_trees
```

    ## # A tibble: 146,611 × 20
    ##    tree_id civic_number std_street    genus_name species_name cultivar_name  
    ##      <dbl>        <dbl> <chr>         <chr>      <chr>        <chr>          
    ##  1  149556          494 W 58TH AV     ULMUS      AMERICANA    BRANDON        
    ##  2  149563          450 W 58TH AV     ZELKOVA    SERRATA      <NA>           
    ##  3  149579         4994 WINDSOR ST    STYRAX     JAPONICA     <NA>           
    ##  4  149590          858 E 39TH AV     FRAXINUS   AMERICANA    AUTUMN APPLAUSE
    ##  5  149604         5032 WINDSOR ST    ACER       CAMPESTRE    <NA>           
    ##  6  149616          585 W 61ST AV     PYRUS      CALLERYANA   CHANTICLEER    
    ##  7  149617         4909 SHERBROOKE ST ACER       PLATANOIDES  COLUMNARE      
    ##  8  149618         4925 SHERBROOKE ST ACER       PLATANOIDES  COLUMNARE      
    ##  9  149619         4969 SHERBROOKE ST ACER       PLATANOIDES  COLUMNARE      
    ## 10  149625          720 E 39TH AV     FRAXINUS   AMERICANA    AUTUMN APPLAUSE
    ## # ℹ 146,601 more rows
    ## # ℹ 14 more variables: common_name <chr>, assigned <chr>, root_barrier <chr>,
    ## #   plant_area <chr>, on_street_block <dbl>, on_street <chr>,
    ## #   neighbourhood_name <chr>, street_side_name <chr>, height_range_id <dbl>,
    ## #   diameter <dbl>, curb <chr>, date_planted <date>, longitude <dbl>,
    ## #   latitude <dbl>

``` r
average_by_group(vancouver_trees, genus_name, diameter)
```

    ## # A tibble: 97 × 2
    ##    genus_name  average_variable
    ##    <chr>                  <dbl>
    ##  1 ABIES                  12.9 
    ##  2 ACER                   10.6 
    ##  3 AESCULUS               23.7 
    ##  4 AILANTHUS              15.9 
    ##  5 ALBIZIA                 6   
    ##  6 ALNUS                  17.5 
    ##  7 AMELANCHIER             3.21
    ##  8 ARALIA                  6.81
    ##  9 ARAUCARIA              11.4 
    ## 10 ARBUTUS                18.4 
    ## # ℹ 87 more rows
…
